Exercise5/Exercise4Top.vcd
$date
     Sep 15, 2019       11:01:18
$end

$version
 SystemC 2.3.3-Accellera --- Aug 29 2019 17:02:48
$end

$timescale
     1 ps
$end

$scope module SystemC $end
$var wire    1  aaaaa  clk       $end
$var wire    1  aaaab  ready       $end
$var wire    1  aaaac  valid       $end
$var wire   16  aaaad  data [15:0]  $end
$var wire    2  aaaae  error [1:0]  $end
$var wire    4  aaaaf  channel [3:0]  $end
$upscope $end
$enddefinitions  $end

$comment
All initial values are dumped below at time 0 sec = 0 timescale units.
$end

$dumpvars
1aaaaa
0aaaab
0aaaac
b0 aaaad
b0 aaaae
b0 aaaaf
$end

#10000
0aaaaa

#20000
1aaaaa
1aaaab

#30000
0aaaaa

#40000
1aaaaa
1aaaac
b1100100 aaaad

#50000
0aaaaa

#60000
1aaaaa
0aaaab
b1011100110001 aaaad

#70000
0aaaaa

#80000
1aaaaa
1aaaab
0aaaac

#90000
0aaaaa

#100000
1aaaaa
1aaaac
b10010000110011 aaaad

#110000
0aaaaa

#120000
1aaaaa
0aaaab
b10000111001010 aaaad

#130000
0aaaaa

#140000
1aaaaa
1aaaab
0aaaac

#150000
0aaaaa

#160000
1aaaaa
1aaaac
b1001000110101 aaaad

#170000
0aaaaa

#180000
1aaaaa
0aaaab
b1111111000011010 aaaad

#190000
0aaaaa

#200000
1aaaaa
1aaaab
0aaaac

#210000
0aaaaa

#220000
1aaaaa
1aaaac
b1111000001001010 aaaad

#230000
0aaaaa

#240000
1aaaaa
0aaaab
b1111000010000001 aaaad

#250000
0aaaaa

#260000
1aaaaa
1aaaab
0aaaac

#270000
0aaaaa

#280000
1aaaaa
1aaaac
b1111111110011111 aaaad

#290000
0aaaaa

#300000
1aaaaa
0aaaab
b1011100111011 aaaad

#310000
0aaaaa

#320000
1aaaaa
1aaaab
0aaaac

#330000
0aaaaa

#340000
1aaaaa
1aaaac
b10110011000001 aaaad

#350000
0aaaaa

#360000
1aaaaa
0aaaab
b11011010010100 aaaad

#370000
0aaaaa

#380000
1aaaaa
1aaaab
0aaaac

#390000
0aaaaa

#400000
1aaaaa
1aaaac
b11000010111010 aaaad

#410000
0aaaaa

#420000
1aaaaa
0aaaab
b1111011001011 aaaad

#430000
0aaaaa

#440000
1aaaaa
1aaaab
0aaaac

#450000
0aaaaa

#460000
1aaaaa
1aaaac
b101000110001 aaaad

#470000
0aaaaa

#480000
1aaaaa
0aaaab
b1111110110010011 aaaad

#490000
0aaaaa

#500000
1aaaaa
1aaaab
0aaaac

#510000
0aaaaa

#520000
1aaaaa
1aaaac
b1111111110100010 aaaad

#530000
0aaaaa

#540000
1aaaaa
0aaaab
b111111011100 aaaad

#550000
0aaaaa

#560000
1aaaaa
1aaaab
0aaaac

#570000
0aaaaa

#580000
1aaaaa
1aaaac
b10011011001011 aaaad

#590000
0aaaaa

#600000
1aaaaa
0aaaab
b11100110011111 aaaad

#610000
0aaaaa

#620000
1aaaaa
1aaaab
0aaaac

#630000
0aaaaa

#640000
1aaaaa
1aaaac
b11111101110110 aaaad

#650000
0aaaaa

#660000
1aaaaa
0aaaab
b11010110101100 aaaad

#670000
0aaaaa

#680000
1aaaaa
1aaaab
0aaaac

#690000
0aaaaa

#700000
1aaaaa
1aaaac
b10000100100011 aaaad

#710000
0aaaaa

#720000
1aaaaa
0aaaab
b101111100010 aaaad

#730000
0aaaaa

#740000
1aaaaa
1aaaab
0aaaac

#750000
0aaaaa

#760000
1aaaaa
1aaaac
b110111 aaaad

#770000
0aaaaa

#780000
1aaaaa
0aaaab
b1110110010 aaaad

#790000
0aaaaa

#800000
1aaaaa
1aaaab
0aaaac

#810000
0aaaaa

#820000
1aaaaa
1aaaac
b1010001110000 aaaad

#830000
0aaaaa

#840000
1aaaaa
0aaaab
b10101000001001 aaaad

#850000
0aaaaa

#860000
1aaaaa
1aaaab
0aaaac

#870000
0aaaaa

#880000
1aaaaa
1aaaac
b11100110100100 aaaad

#890000
0aaaaa

#900000
1aaaaa
0aaaab
b11101100111111 aaaad

#910000
0aaaaa

#920000
1aaaaa
1aaaab
0aaaac

#930000
0aaaaa

#940000
1aaaaa
1aaaac
b10110110010110 aaaad

#950000
0aaaaa

#960000
1aaaaa
0aaaab
b1011011000000 aaaad

#970000
0aaaaa

#980000
1aaaaa
1aaaab
0aaaac

#990000
0aaaaa

#1000000
1aaaaa
1aaaac
b100111001 aaaad

#1010000
0aaaaa

#1020000
1aaaaa
0aaaab
b1111011011001100 aaaad

#1030000
0aaaaa

#1040000
1aaaaa
1aaaab
0aaaac

#1050000
0aaaaa

#1060000
1aaaaa
1aaaac
b1111101111001010 aaaad

#1070000
0aaaaa

#1080000
1aaaaa
0aaaab
b110011111011 aaaad

#1090000
0aaaaa

#1100000
1aaaaa
1aaaab
0aaaac

#1110000
0aaaaa

#1120000
1aaaaa
1aaaac
b10000100101000 aaaad

#1130000
0aaaaa

#1140000
1aaaaa
0aaaab
b10110110011100 aaaad

#1150000
0aaaaa

#1160000
1aaaaa
1aaaab
0aaaac

#1170000
0aaaaa

#1180000
1aaaaa
1aaaac
b10101101010111 aaaad

#1190000
0aaaaa

#1200000
1aaaaa
0aaaab
b1101001111001 aaaad

#1210000
0aaaaa

#1220000
1aaaaa
1aaaab
0aaaac

#1230000
0aaaaa

#1240000
1aaaaa
1aaaac
b1000110100 aaaad

#1250000
0aaaaa

#1260000
1aaaaa
0aaaab
b1110110101001100 aaaad

#1270000
0aaaaa

#1280000
1aaaaa
1aaaab
0aaaac

#1290000
0aaaaa

#1300000
1aaaaa
1aaaac
b1110010011011101 aaaad

#1310000
0aaaaa

#1320000
1aaaaa
0aaaab
b1110101111101100 aaaad

#1330000
0aaaaa

#1340000
1aaaaa
1aaaab
0aaaac

#1350000
0aaaaa

#1360000
1aaaaa
1aaaac
b1111110111110100 aaaad

#1370000
0aaaaa

#1380000
1aaaaa
0aaaab
b1000100010110 aaaad

#1390000
0aaaaa

#1400000
1aaaaa
1aaaab
0aaaac

#1410000
0aaaaa

#1420000
1aaaaa
1aaaac
b1101011101101 aaaad

#1430000
0aaaaa

#1440000
1aaaaa
0aaaab
b1010110010111 aaaad

#1450000
0aaaaa

#1460000
1aaaaa
1aaaab
0aaaac

#1470000
0aaaaa

#1480000
1aaaaa
1aaaac
b1010011000 aaaad

#1490000
0aaaaa

#1500000
1aaaaa
0aaaab
b1110101000011101 aaaad

#1510000
0aaaaa

#1520000
1aaaaa
1aaaab
0aaaac

#1530000
0aaaaa

#1540000
1aaaaa
1aaaac
b1101011100000010 aaaad

#1550000
0aaaaa

#1560000
1aaaaa
0aaaab
b1101000110001111 aaaad

#1570000
0aaaaa

#1580000
1aaaaa
1aaaab
0aaaac

#1590000
0aaaaa

#1600000
1aaaaa
1aaaac
b1101101101101101 aaaad

#1610000
0aaaaa

#1620000
1aaaaa
0aaaab
b1110111011011110 aaaad

#1630000
0aaaaa

#1640000
1aaaaa
1aaaab
0aaaac

#1650000
0aaaaa

#1660000
1aaaaa
1aaaac
b110000100 aaaad

#1670000
0aaaaa

#1680000
1aaaaa
0aaaab
b100101110010 aaaad

#1690000
0aaaaa

#1700000
1aaaaa
1aaaab
0aaaac

#1710000
0aaaaa

#1720000
1aaaaa
1aaaac
b111111101 aaaad

#1730000
0aaaaa

#1740000
1aaaaa
0aaaab
b1110111000000100 aaaad

#1750000
0aaaaa

#1760000
1aaaaa
1aaaab
0aaaac

#1770000
0aaaaa

#1780000
1aaaaa
1aaaac
b1101011010001100 aaaad

#1790000
0aaaaa

#1800000
1aaaaa
0aaaab
b1100011001011101 aaaad

#1810000
0aaaaa

#1820000
1aaaaa
1aaaab
0aaaac

#1830000
0aaaaa

#1840000
1aaaaa
1aaaac
b1100010011000100 aaaad

#1850000
0aaaaa

#1860000
1aaaaa
0aaaab
b1101001000001001 aaaad

#1870000
0aaaaa

#1880000
1aaaaa
1aaaab
0aaaac

#1890000
0aaaaa

#1900000
1aaaaa
1aaaac
b1110011101001001 aaaad

#1910000
0aaaaa

#1920000
1aaaaa
0aaaab
b1111100111010011 aaaad

#1930000
0aaaaa

#1940000
1aaaaa
1aaaab
0aaaac

#1950000
0aaaaa

#1960000
1aaaaa
1aaaac
b1011001 aaaad

#1970000
0aaaaa

#1980000
1aaaaa
0aaaab
b1111011101111101 aaaad

#1990000
0aaaaa

#2000000
1aaaaa
1aaaab
0aaaac

#2010000
0aaaaa

#2020000
1aaaaa
1aaaac
b1110001101101011 aaaad

#2030000
0aaaaa

#2040000
1aaaaa
0aaaab
b1100110111011001 aaaad

#2050000
0aaaaa

#2060000
1aaaaa
1aaaab
0aaaac

#2070000
0aaaaa

#2080000
1aaaaa
1aaaac
b1100000101001101 aaaad

#2090000
0aaaaa

#2100000
1aaaaa
0aaaab
b1100001111111011 aaaad

#2110000
0aaaaa

#2120000
1aaaaa
1aaaab
0aaaac

#2130000
0aaaaa

#2140000
1aaaaa
1aaaac
b1101010011000101 aaaad

#2150000
0aaaaa

#2160000
1aaaaa
0aaaab
b1110101111000011 aaaad

#2170000
0aaaaa

#2180000
1aaaaa
1aaaab
0aaaac

#2190000
0aaaaa

#2200000
1aaaaa
1aaaac
b1111111000011011 aaaad

#2210000
0aaaaa

#2220000
1aaaaa
0aaaab
b1101001001 aaaad

#2230000
0aaaaa

#2240000
1aaaaa
1aaaab
0aaaac

#2250000
0aaaaa

#2260000
1aaaaa
1aaaac
b1111100101000101 aaaad

#2270000
0aaaaa

#2280000
1aaaaa
0aaaab
b1110010101111000 aaaad

#2290000
0aaaaa

#2300000
1aaaaa
1aaaab
0aaaac

#2310000
0aaaaa

#2320000
1aaaaa
1aaaac
b1101001000100010 aaaad

#2330000
0aaaaa

#2340000
1aaaaa
0aaaab
b1100100101011000 aaaad

#2350000
0aaaaa

#2360000
1aaaaa
1aaaab
0aaaac

#2370000
0aaaaa

#2380000
1aaaaa
1aaaac
b1101000000011101 aaaad

#2390000
0aaaaa

#2400000
1aaaaa
0aaaab
b1110001111110001 aaaad

#2410000
0aaaaa

#2420000
1aaaaa
1aaaab
0aaaac

#2430000
0aaaaa

#2440000
1aaaaa
1aaaac
b1111110000001000 aaaad

#2450000
0aaaaa

#2460000
1aaaaa
0aaaab
b110110001110 aaaad

#2470000
0aaaaa

#2480000
1aaaaa
1aaaab
0aaaac

#2490000
0aaaaa

#2500000
1aaaaa
1aaaac
b1000011101110 aaaad

#2510000
0aaaaa

#2520000
1aaaaa
0aaaab
b10101111101 aaaad

#2530000
0aaaaa

#2540000
1aaaaa
1aaaab
0aaaac

#2550000
0aaaaa

#2560000
1aaaaa
1aaaac
b1111000111001101 aaaad

#2570000
0aaaaa

#2580000
1aaaaa
0aaaab
b1110000001111011 aaaad

#2590000
0aaaaa

#2600000
1aaaaa
1aaaab
0aaaac

#2610000
0aaaaa

#2620000
1aaaaa
1aaaac
b1101101100000010 aaaad

#2630000
0aaaaa

#2640000
1aaaaa
0aaaab
b1110010100100001 aaaad

#2650000
0aaaaa

#2660000
1aaaaa
1aaaab
0aaaac

#2670000
0aaaaa

#2680000
1aaaaa
1aaaac
b1111101100000001 aaaad

#2690000
0aaaaa

#2700000
1aaaaa
0aaaab
b1001100010110 aaaad

#2710000
0aaaaa

#2720000
1aaaaa
1aaaab
0aaaac

#2730000
0aaaaa

#2740000
1aaaaa
1aaaac
b10001011000100 aaaad

#2750000
0aaaaa

#2760000
1aaaaa
0aaaab
b10001110000001 aaaad

#2770000
0aaaaa

#2780000
1aaaaa
1aaaab
0aaaac

#2790000
0aaaaa

#2800000
1aaaaa
1aaaac
b1011000000111 aaaad

#2810000
0aaaaa

#2820000
1aaaaa
0aaaab
b111110100 aaaad

#2830000
0aaaaa

#2840000
1aaaaa
1aaaab
0aaaac

#2850000
0aaaaa

#2860000
1aaaaa
1aaaac
b1111001000011000 aaaad

#2870000
0aaaaa

#2880000
1aaaaa
0aaaab
b1110111100101111 aaaad

#2890000
0aaaaa

#2900000
1aaaaa
1aaaab
0aaaac

#2910000
0aaaaa

#2920000
1aaaaa
1aaaac
b1111101110011111 aaaad

#2930000
0aaaaa

#2940000
1aaaaa
0aaaab
b1001001010000 aaaad

#2950000
0aaaaa

#2960000
1aaaaa
1aaaab
0aaaac

#2970000
0aaaaa

#2980000
1aaaaa
1aaaac
b10100100100011 aaaad

#2990000
0aaaaa

#3000000
1aaaaa
0aaaab
b11010111011001 aaaad

#3010000
0aaaaa

#3020000
1aaaaa
1aaaab
0aaaac

#3030000
0aaaaa

#3040000
1aaaaa
1aaaac
b11001100010101 aaaad

#3050000
0aaaaa

#3060000
1aaaaa
0aaaab
b10001011110010 aaaad

#3070000
0aaaaa

#3080000
1aaaaa
1aaaab
0aaaac

#3090000
0aaaaa

#3100000
1aaaaa
1aaaac
b110111111101 aaaad

#3110000
0aaaaa

#3120000
1aaaaa
0aaaab
b1111111100001100 aaaad

#3130000
0aaaaa

#3140000
1aaaaa
1aaaab
0aaaac

#3150000
0aaaaa

#3160000
1aaaaa
1aaaac
b1111110111110101 aaaad

#3170000
0aaaaa

#3180000
1aaaaa
0aaaab
b101111000010 aaaad

#3190000
0aaaaa

#3200000
1aaaaa
1aaaab
0aaaac

#3210000
0aaaaa

#3220000
1aaaaa
1aaaac
b10001000101110 aaaad

#3230000
0aaaaa

#3240000
1aaaaa
0aaaab
b11011010101101 aaaad

#3250000
0aaaaa

#3260000
1aaaaa
1aaaab
0aaaac

#3270000
0aaaaa

#3280000
1aaaaa
1aaaac
b11111110010010 aaaad

#3290000
0aaaaa

#3300000
1aaaaa
0aaaab
b11100010111111 aaaad

#3310000
0aaaaa

#3320000
1aaaaa
1aaaab
0aaaac

#3330000
0aaaaa

#3340000
1aaaaa
1aaaac
b10010110101001 aaaad

#3350000
0aaaaa

#3360000
1aaaaa
0aaaab
b111110101000 aaaad

#3370000
0aaaaa

#3380000
1aaaaa
1aaaab
0aaaac

#3390000
0aaaaa

#3400000
1aaaaa
1aaaac
b101101010 aaaad

#3410000
0aaaaa

#3420000
1aaaaa
0aaaab
b111000100 aaaad

#3430000
0aaaaa

#3440000
1aaaaa
1aaaab
0aaaac

#3450000
0aaaaa

#3460000
1aaaaa
1aaaac
b1000001011110 aaaad

#3470000
0aaaaa

#3480000
1aaaaa
0aaaab
b10010111011011 aaaad

#3490000
0aaaaa

#3500000
1aaaaa
1aaaab
0aaaac

#3510000
0aaaaa

#3520000
1aaaaa
1aaaac
b11011101110111 aaaad

#3530000
0aaaaa

#3540000
1aaaaa
0aaaab
b11110000111000 aaaad

#3550000
0aaaaa

#3560000
1aaaaa
1aaaab
0aaaac

#3570000
0aaaaa

#3580000
1aaaaa
1aaaac
b11000101010111 aaaad

#3590000
0aaaaa

#3600000
1aaaaa
0aaaab
b1101110010011 aaaad

#3610000
0aaaaa

#3620000
1aaaaa
1aaaab
0aaaac

#3630000
0aaaaa

#3640000
1aaaaa
1aaaac
b10011100111 aaaad

#3650000
0aaaaa

#3660000
1aaaaa
0aaaab
b1111011110101110 aaaad

#3670000
0aaaaa

#3680000
1aaaaa
1aaaab
0aaaac

#3690000
0aaaaa

#3700000
1aaaaa
1aaaac
b1111100110011011 aaaad

#3710000
0aaaaa

#3720000
1aaaaa
0aaaab
b100011110011 aaaad

#3730000
0aaaaa

#3740000
1aaaaa
1aaaab
0aaaac

#3750000
0aaaaa

#3760000
1aaaaa
1aaaac
b1110101101011 aaaad

#3770000
0aaaaa

#3780000
1aaaaa
0aaaab
b10110000101010 aaaad

#3790000
0aaaaa

#3800000
1aaaaa
1aaaab
0aaaac

#3810000
0aaaaa

#3820000
1aaaaa
1aaaac
b10110100010100 aaaad

#3830000
0aaaaa

#3840000
1aaaaa
0aaaab
b1111011000000 aaaad

#3850000
0aaaaa

#3860000
1aaaaa
1aaaab
0aaaac

#3870000
0aaaaa

#3880000
1aaaaa
1aaaac
b11100100100 aaaad

#3890000
0aaaaa

#3900000
1aaaaa
0aaaab
b1111000010110101 aaaad

#3910000
0aaaaa

#3920000
1aaaaa
1aaaab
0aaaac

#3930000
0aaaaa

#3940000
1aaaaa
1aaaac
b1110010101001100 aaaad

#3950000
0aaaaa

#3960000
1aaaaa
0aaaab
b1110100101100011 aaaad

#3970000
0aaaaa

#3980000
1aaaaa
1aaaab
0aaaac

#3990000
0aaaaa

#4000000
1aaaaa
1aaaac
b1111100111100110 aaaad

#4010000
0aaaaa

#4020000
1aaaaa
0aaaab
b110110110101 aaaad

#4030000
0aaaaa

#4040000
1aaaaa
1aaaab
0aaaac

#4050000
0aaaaa

#4060000
1aaaaa
1aaaac
b1101000010101 aaaad

#4070000
0aaaaa

#4080000
1aaaaa
0aaaab
b1011111101001 aaaad

#4090000
0aaaaa

#4100000
1aaaaa
1aaaab
0aaaac

#4110000
0aaaaa

#4120000
1aaaaa
1aaaac
b11100101010 aaaad

#4130000
0aaaaa

#4140000
1aaaaa
0aaaab
b1110111011101100 aaaad

#4150000
0aaaaa

#4160000
1aaaaa
1aaaab
0aaaac

#4170000
0aaaaa

#4180000
1aaaaa
1aaaac
b1101100111101101 aaaad

#4190000
0aaaaa

#4200000
1aaaaa
0aaaab
b1101000101011101 aaaad

#4210000
0aaaaa

#4220000
1aaaaa
1aaaab
0aaaac

#4230000
0aaaaa

#4240000
1aaaaa
1aaaac
b1101100001101001 aaaad

#4250000
0aaaaa

#4260000
1aaaaa
0aaaab
b1110101010101111 aaaad

#4270000
0aaaaa

#4280000
1aaaaa
1aaaab
0aaaac

#4290000
0aaaaa

#4300000
1aaaaa
1aaaac
b1111111001100001 aaaad

#4310000
0aaaaa

#4320000
1aaaaa
0aaaab
b100100001100 aaaad

#4330000
0aaaaa

#4340000
1aaaaa
1aaaab
0aaaac

#4350000
0aaaaa

#4360000
1aaaaa
1aaaac
b10010101110 aaaad

#4370000
0aaaaa

#4380000
1aaaaa
0aaaab
b1111001010100100 aaaad

#4390000
0aaaaa

#4400000
1aaaaa
1aaaab
0aaaac

#4410000
0aaaaa

#4420000
1aaaaa
1aaaac
b1101101011111100 aaaad

#4430000
0aaaaa

#4440000
1aaaaa
0aaaab
b1100100010010100 aaaad

#4450000
0aaaaa

#4460000
1aaaaa
1aaaab
0aaaac

#4470000
0aaaaa

#4480000
1aaaaa
1aaaac
b1100001111001010 aaaad

#4490000
0aaaaa

#4500000
1aaaaa
0aaaab
b1100111001110000 aaaad

#4510000
0aaaaa

#4520000
1aaaaa
1aaaab
0aaaac

#4530000
0aaaaa

#4540000
1aaaaa
1aaaac
b1110001011100101 aaaad

#4550000
0aaaaa

#4560000
1aaaaa
0aaaab
b1111011011010111 aaaad

#4570000
0aaaaa

#4580000
1aaaaa
1aaaab
0aaaac

#4590000
0aaaaa

#4600000
1aaaaa
1aaaac
b1000110 aaaad

#4610000
0aaaaa

#4620000
1aaaaa
0aaaab
b1111101001100101 aaaad

#4630000
0aaaaa

#4640000
1aaaaa
1aaaab
0aaaac

#4650000
0aaaaa

#4660000
1aaaaa
1aaaac
b1110011111101001 aaaad

#4670000
0aaaaa

#4680000
1aaaaa
0aaaab
b1101000110111110 aaaad

#4690000
0aaaaa

#4700000
1aaaaa
1aaaab
0aaaac

#4710000
0aaaaa

#4720000
1aaaaa
1aaaac
b1100001010110001 aaaad

#4730000
0aaaaa

#4740000
1aaaaa
0aaaab
b1100001000101011 aaaad

#4750000
0aaaaa

#4760000
1aaaaa
1aaaab
0aaaac

#4770000
0aaaaa

#4780000
1aaaaa
1aaaac
b1101000010010111 aaaad

#4790000
0aaaaa

#4800000
1aaaaa
0aaaab
b1110011100110000 aaaad

#4810000
0aaaaa

#4820000
1aaaaa
1aaaab
0aaaac

#4830000
0aaaaa

#4840000
1aaaaa
1aaaac
b1111101101001011 aaaad

#4850000
0aaaaa

#4860000
1aaaaa
0aaaab
b1110000011 aaaad

#4870000
0aaaaa

#4880000
1aaaaa
1aaaab
0aaaac

#4890000
0aaaaa

#4900000
1aaaaa
1aaaac
b1111110001010100 aaaad

#4910000
0aaaaa

#4920000
1aaaaa
0aaaab
b1110100111000001 aaaad

#4930000
0aaaaa

#4940000
1aaaaa
1aaaab
0aaaac

#4950000
0aaaaa

#4960000
1aaaaa
1aaaac
b1101010101101111 aaaad

#4970000
0aaaaa

#4980000
1aaaaa
0aaaab
b1100100111101010 aaaad

#4990000
0aaaaa

#5000000
1aaaaa
1aaaab
0aaaac

#5010000
0aaaaa

#5020000
1aaaaa
1aaaac
b1100110110000110 aaaad

#5030000
0aaaaa

#5040000
1aaaaa
0aaaab
b1101111101001011 aaaad

#5050000
0aaaaa

#5060000
1aaaaa
1aaaab
0aaaac

#5070000
0aaaaa

#5080000
1aaaaa
1aaaac
b1111011101101000 aaaad

#5090000
0aaaaa

#5100000
1aaaaa
0aaaab
b101100000110 aaaad

#5110000
0aaaaa

#5120000
1aaaaa
1aaaab
0aaaac

#5130000
0aaaaa

#5140000
1aaaaa
1aaaac
b1000110001001 aaaad

#5150000
0aaaaa

#5160000
1aaaaa
0aaaab
b100010111100 aaaad

#5170000
0aaaaa

#5180000
1aaaaa
1aaaab
0aaaac

#5190000
0aaaaa

#5200000
1aaaaa
1aaaac
b1111010111101000 aaaad

#5210000
0aaaaa

#5220000
1aaaaa
0aaaab
b1110001100111101 aaaad

#5230000
0aaaaa

#5240000
1aaaaa
1aaaab
0aaaac

#5250000
0aaaaa

#5260000
1aaaaa
1aaaac
b1101101011011110 aaaad

#5270000
0aaaaa

#5280000
1aaaaa
0aaaab
b1110000111110000 aaaad

#5290000
0aaaaa

#5300000
1aaaaa
1aaaab
0aaaac

#5310000
0aaaaa

#5320000
1aaaaa
1aaaac
b1111011000011000 aaaad

#5330000
0aaaaa

#5340000
1aaaaa
0aaaab
b111010100001 aaaad

#5350000
0aaaaa

#5360000
1aaaaa
1aaaab
0aaaac

#5370000
0aaaaa

#5380000
1aaaaa
1aaaac
b10000010110110 aaaad

#5390000
0aaaaa

#5400000
1aaaaa
0aaaab
b10010010100010 aaaad

#5410000
0aaaaa

#5420000
1aaaaa
1aaaab
0aaaac

#5430000
0aaaaa

#5440000
1aaaaa
1aaaac
b1100110010010 aaaad

#5450000
0aaaaa

#5460000
1aaaaa
0aaaab
b10111111011 aaaad

#5470000
0aaaaa

#5480000
1aaaaa
1aaaab
0aaaac

#5490000
0aaaaa

#5500000
1aaaaa
1aaaac
b1111010001110000 aaaad

#5510000
0aaaaa

#5520000
1aaaaa
0aaaab
b1110111010000000 aaaad

#5530000
0aaaaa

#5540000
1aaaaa
1aaaab
0aaaac

#5550000
0aaaaa

#5560000
1aaaaa
1aaaac
b1111100000001110 aaaad

#5570000
0aaaaa

#5580000
1aaaaa
0aaaab
b110101100111 aaaad

#5590000
0aaaaa

#5600000
1aaaaa
1aaaab
0aaaac

#5610000
0aaaaa

#5620000
1aaaaa
1aaaac
b10010100011000 aaaad

#5630000
0aaaaa

#5640000
1aaaaa
0aaaab
b11010001111001 aaaad

#5650000
0aaaaa

#5660000
1aaaaa
1aaaab
0aaaac

#5670000
0aaaaa

#5680000
1aaaaa
1aaaac
b11010011100010 aaaad

#5690000
0aaaaa

#5700000
1aaaaa
0aaaab
b10011011100110 aaaad

#5710000
0aaaaa

#5720000
1aaaaa
1aaaab
0aaaac

#5730000
0aaaaa

#5740000
1aaaaa
1aaaac
b1001000001001 aaaad

#5750000
0aaaaa

#5760000
1aaaaa
0aaaab
b100011000 aaaad

#5770000
0aaaaa

#5780000
1aaaaa
1aaaab
0aaaac

#5790000
0aaaaa

#5800000
1aaaaa
1aaaac
b1111110011100111 aaaad

#5810000
0aaaaa

#5820000
1aaaaa
0aaaab
b100000000101 aaaad

#5830000
0aaaaa

#5840000
1aaaaa
1aaaab
0aaaac

#5850000
0aaaaa

#5860000
1aaaaa
1aaaac
b1110101111110 aaaad

#5870000
0aaaaa

#5880000
1aaaaa
0aaaab
b11001101000001 aaaad

#5890000
0aaaaa

#5900000
1aaaaa
1aaaab
0aaaac

#5910000
0aaaaa

#5920000
1aaaaa
1aaaac
b11111100000110 aaaad

#5930000
0aaaaa

#5940000
1aaaaa
0aaaab
b11101101001111 aaaad

#5950000
0aaaaa

#5960000
1aaaaa
1aaaab
0aaaac

#5970000
0aaaaa

#5980000
1aaaaa
1aaaac
b10101000010000 aaaad

#5990000
0aaaaa

#6000000
1aaaaa
0aaaab
b1001111000001 aaaad

#6010000
0aaaaa

#6020000
1aaaaa
1aaaab
0aaaac

#6030000
0aaaaa

#6040000
1aaaaa
1aaaac
b1100111001 aaaad

#6050000
0aaaaa

#6060000
1aaaaa
0aaaab
b1101111 aaaad

#6070000
0aaaaa

#6080000
1aaaaa
1aaaab
0aaaac

#6090000
0aaaaa

#6100000
1aaaaa
1aaaac
b110010010100 aaaad

#6110000
0aaaaa

#6120000
1aaaaa
0aaaab
b10000110000100 aaaad

#6130000
0aaaaa

#6140000
1aaaaa
1aaaab
0aaaac

#6150000
0aaaaa

#6160000
1aaaaa
1aaaac
b11010011000000 aaaad

#6170000
0aaaaa

#6180000
1aaaaa
0aaaab
b11110010001011 aaaad

#6190000
0aaaaa

#6200000
1aaaaa
1aaaab
0aaaac

#6210000
0aaaaa

#6220000
1aaaaa
1aaaac
b11010010100011 aaaad

#6230000
0aaaaa

#6240000
1aaaaa
0aaaab
b10000001011100 aaaad

#6250000
0aaaaa

#6260000
1aaaaa
1aaaab
0aaaac

#6270000
0aaaaa

#6280000
1aaaaa
1aaaac
b100011111001 aaaad

#6290000
0aaaaa

#6300000
1aaaaa
0aaaab
b1111100100110010 aaaad

#6310000
0aaaaa

#6320000
1aaaaa
1aaaab
0aaaac

#6330000
0aaaaa

#6340000
1aaaaa
1aaaac
b1111011111111011 aaaad

#6350000
0aaaaa

#6360000
1aaaaa
0aaaab
b10100100011 aaaad

#6370000
0aaaaa

#6380000
1aaaaa
1aaaab
0aaaac

#6390000
0aaaaa

#6400000
1aaaaa
1aaaac
b1100101110001 aaaad

#6410000
0aaaaa

#6420000
1aaaaa
0aaaab
b10101000100100 aaaad

#6430000
0aaaaa

#6440000
1aaaaa
1aaaab
0aaaac

#6450000
0aaaaa

#6460000
1aaaaa
1aaaac
b10111000101111 aaaad

#6470000
0aaaaa

#6480000
1aaaaa
0aaaab
b10001010100100 aaaad

#6490000
0aaaaa

#6500000
1aaaaa
1aaaab
0aaaac

#6510000
0aaaaa

#6520000
1aaaaa
1aaaac
b110000100010 aaaad

#6530000
0aaaaa

#6540000
1aaaaa
0aaaab
b1111010010010100 aaaad

#6550000
0aaaaa

#6560000
1aaaaa
1aaaab
0aaaac

#6570000
0aaaaa

#6580000
1aaaaa
1aaaac
b1110011001100000 aaaad

#6590000
0aaaaa

#6600000
1aaaaa
0aaaab
b1110011101011110 aaaad

#6610000
0aaaaa

#6620000
1aaaaa
1aaaab
0aaaac

#6630000
0aaaaa

#6640000
1aaaaa
1aaaac
b1111010111111100 aaaad

#6650000
0aaaaa

#6660000
1aaaaa
0aaaab
b101000000100 aaaad

#6670000
0aaaaa

#6680000
1aaaaa
1aaaab
0aaaac

#6690000
0aaaaa

#6700000
1aaaaa
1aaaac
b1100010100010 aaaad

#6710000
0aaaaa

#6720000
1aaaaa
0aaaab
b1100110100000 aaaad

#6730000
0aaaaa

#6740000
1aaaaa
1aaaab
0aaaac

#6750000
0aaaaa

#6760000
1aaaaa
1aaaac
b101101101100 aaaad

#6770000
0aaaaa

#6780000
1aaaaa
0aaaab
b1111001111011110 aaaad

#6790000
0aaaaa

#6800000
1aaaaa
1aaaab
0aaaac

#6810000
0aaaaa

#6820000
1aaaaa
1aaaac
b1101110101011100 aaaad

#6830000
0aaaaa

#6840000
1aaaaa
0aaaab
b1101000111010001 aaaad

#6850000
0aaaaa

#6860000
1aaaaa
1aaaab
0aaaac

#6870000
0aaaaa

#6880000
1aaaaa
1aaaac
b1101010111011100 aaaad

#6890000
0aaaaa

#6900000
1aaaaa
0aaaab
b1110011010001111 aaaad

#6910000
0aaaaa

#6920000
1aaaaa
1aaaab
0aaaac

#6930000
0aaaaa

#6940000
1aaaaa
1aaaac
b1111101011011101 aaaad

#6950000
0aaaaa

#6960000
1aaaaa
0aaaab
b100000000101 aaaad

#6970000
0aaaaa

#6980000
1aaaaa
1aaaab
0aaaac

#6990000
0aaaaa

#7000000
1aaaaa
1aaaac
b11011001110 aaaad

#7010000
0aaaaa

#7020000
1aaaaa
0aaaab
b1111011100000111 aaaad

#7030000
0aaaaa

#7040000
1aaaaa
1aaaab
0aaaac

#7050000
0aaaaa

#7060000
1aaaaa
1aaaac
b1101111110100100 aaaad

#7070000
0aaaaa

#7080000
1aaaaa
0aaaab
b1100101101011101 aaaad

#7090000
0aaaaa

#7100000
1aaaaa
1aaaab
0aaaac

#7110000
0aaaaa

#7120000
1aaaaa
1aaaac
b1100001101110101 aaaad

#7130000
0aaaaa

#7140000
1aaaaa
0aaaab
b1100101101000000 aaaad

#7150000
0aaaaa

#7160000
1aaaaa
1aaaab
0aaaac

#7170000
0aaaaa

#7180000
1aaaaa
1aaaac
b1101111001111100 aaaad

#7190000
0aaaaa

#7200000
1aaaaa
0aaaab
b1111001101101100 aaaad

#7210000
0aaaaa

#7220000
1aaaaa
1aaaab
0aaaac

#7230000
0aaaaa

#7240000
1aaaaa
1aaaac
b1111111110010001 aaaad

#7250000
0aaaaa

#7260000
1aaaaa
0aaaab
b1111110011000111 aaaad

#7270000
0aaaaa

#7280000
1aaaaa
1aaaab
0aaaac

#7290000
0aaaaa

#7300000
1aaaaa
1aaaac
b1110110000111111 aaaad

#7310000
0aaaaa

#7320000
1aaaaa
0aaaab
b1101010111110000 aaaad

#7330000
0aaaaa

#7340000
1aaaaa
1aaaab
0aaaac

#7350000
0aaaaa

#7360000
1aaaaa
1aaaac
b1100010010110001 aaaad

