Exercise4/Exercise4Top.vcd
$date
     Sep 12, 2019       17:16:35
$end

$version
 SystemC 2.3.3-Accellera --- Sep  6 2019 09:45:56
$end

$timescale
     1 ps
$end

$scope module SystemC $end
$var wire    1  aaaaa  clk       $end
$var wire    1  aaaab  ready       $end
$var wire    1  aaaac  valid       $end
$var wire   16  aaaad  data [15:0]  $end
$var wire    2  aaaae  error [1:0]  $end
$var wire    4  aaaaf  channel [3:0]  $end
$upscope $end
$enddefinitions  $end

$comment
All initial values are dumped below at time 0 sec = 0 timescale units.
$end

$dumpvars
1aaaaa
xaaaab
xaaaac
b0 aaaad
b0 aaaae
b0 aaaaf
$end

#500
0aaaaa

#1000
1aaaaa
1aaaab

#1500
0aaaaa

#2000
1aaaaa
1aaaac

#2500
0aaaaa

#3000
1aaaaa
0aaaab
b1011100110001 aaaad

#3500
0aaaaa

#4000
1aaaaa
1aaaab

#4500
0aaaaa

#5000
1aaaaa
b10010000110011 aaaad

#5500
0aaaaa

#6000
1aaaaa
0aaaab
b10000111001010 aaaad

#6500
0aaaaa

#7000
1aaaaa
1aaaab

#7500
0aaaaa

#8000
1aaaaa
b1001000110101 aaaad

#8500
0aaaaa

#9000
1aaaaa
0aaaab
b1111111000011010 aaaad

#9500
0aaaaa

#10000
1aaaaa
1aaaab

#10500
0aaaaa

#11000
1aaaaa
b1111000001001010 aaaad

#11500
0aaaaa

#12000
1aaaaa
0aaaab
b1111000010000001 aaaad

#12500
0aaaaa

#13000
1aaaaa
1aaaab

#13500
0aaaaa

#14000
1aaaaa
b1111111110011111 aaaad

#14500
0aaaaa

#15000
1aaaaa
0aaaab
b1011100111011 aaaad

#15500
0aaaaa

#16000
1aaaaa
1aaaab

#16500
0aaaaa

#17000
1aaaaa
b10110011000001 aaaad

#17500
0aaaaa

#18000
1aaaaa
0aaaab
b11011010010100 aaaad

#18500
0aaaaa

#19000
1aaaaa
1aaaab

#19500
0aaaaa

#20000
1aaaaa
b11000010111010 aaaad

#20500
0aaaaa

#21000
1aaaaa
0aaaab
b1111011001011 aaaad

#21500
0aaaaa

#22000
1aaaaa
1aaaab

#22500
0aaaaa

#23000
1aaaaa
b101000110001 aaaad

#23500
0aaaaa

#24000
1aaaaa
0aaaab
b1111110110010011 aaaad

#24500
0aaaaa

#25000
1aaaaa
1aaaab

#25500
0aaaaa

#26000
1aaaaa
b1111111110100010 aaaad

#26500
0aaaaa

#27000
1aaaaa
0aaaab
b111111011100 aaaad

#27500
0aaaaa

#28000
1aaaaa
1aaaab

#28500
0aaaaa

#29000
1aaaaa
b10011011001011 aaaad

#29500
0aaaaa

#30000
1aaaaa
0aaaab
b11100110011111 aaaad

#30500
0aaaaa

#31000
1aaaaa
1aaaab

#31500
0aaaaa

#32000
1aaaaa
b11111101110110 aaaad

#32500
0aaaaa

#33000
1aaaaa
0aaaab
b11010110101100 aaaad

#33500
0aaaaa

#34000
1aaaaa
1aaaab

#34500
0aaaaa

#35000
1aaaaa
b10000100100011 aaaad

#35500
0aaaaa

#36000
1aaaaa
0aaaab
b101111100010 aaaad

#36500
0aaaaa

#37000
1aaaaa
1aaaab

#37500
0aaaaa

#38000
1aaaaa
b110111 aaaad

#38500
0aaaaa

#39000
1aaaaa
0aaaab
b1110110010 aaaad

#39500
0aaaaa

#40000
1aaaaa
1aaaab

#40500
0aaaaa

#41000
1aaaaa
b1010001110000 aaaad

#41500
0aaaaa

#42000
1aaaaa
0aaaab
b10101000001001 aaaad

#42500
0aaaaa

#43000
1aaaaa
1aaaab

#43500
0aaaaa

#44000
1aaaaa
b11100110100100 aaaad

#44500
0aaaaa

#45000
1aaaaa
0aaaab
b11101100111111 aaaad

#45500
0aaaaa

#46000
1aaaaa
1aaaab

#46500
0aaaaa

#47000
1aaaaa
b10110110010110 aaaad

#47500
0aaaaa

#48000
1aaaaa
0aaaab
b1011011000000 aaaad

#48500
0aaaaa

#49000
1aaaaa
1aaaab

#49500
0aaaaa

#50000
1aaaaa
b100111001 aaaad

#50500
0aaaaa

#51000
1aaaaa
0aaaab
b1111011011001100 aaaad

#51500
0aaaaa

#52000
1aaaaa
1aaaab

#52500
0aaaaa

#53000
1aaaaa
b1111101111001010 aaaad

#53500
0aaaaa

#54000
1aaaaa
0aaaab
b110011111011 aaaad

#54500
0aaaaa

#55000
1aaaaa
1aaaab

#55500
0aaaaa

#56000
1aaaaa
b10000100101000 aaaad

#56500
0aaaaa

#57000
1aaaaa
0aaaab
b10110110011100 aaaad

#57500
0aaaaa

#58000
1aaaaa
1aaaab

#58500
0aaaaa

#59000
1aaaaa
b10101101010111 aaaad

#59500
0aaaaa

#60000
1aaaaa
0aaaab
b1101001111001 aaaad

#60500
0aaaaa

#61000
1aaaaa
1aaaab

#61500
0aaaaa

#62000
1aaaaa
b1000110100 aaaad

#62500
0aaaaa

#63000
1aaaaa
0aaaab
b1110110101001100 aaaad

#63500
0aaaaa

#64000
1aaaaa
1aaaab

#64500
0aaaaa

#65000
1aaaaa
b1110010011011101 aaaad

#65500
0aaaaa

#66000
1aaaaa
0aaaab
b1110101111101100 aaaad

#66500
0aaaaa

#67000
1aaaaa
1aaaab

#67500
0aaaaa

#68000
1aaaaa
b1111110111110100 aaaad

#68500
0aaaaa

#69000
1aaaaa
0aaaab
b1000100010110 aaaad

#69500
0aaaaa

#70000
1aaaaa
1aaaab

#70500
0aaaaa

#71000
1aaaaa
b1101011101101 aaaad

#71500
0aaaaa

#72000
1aaaaa
0aaaab
b1010110010111 aaaad

#72500
0aaaaa

#73000
1aaaaa
1aaaab

#73500
0aaaaa

#74000
1aaaaa
b1010011000 aaaad

#74500
0aaaaa

#75000
1aaaaa
0aaaab
b1110101000011101 aaaad

#75500
0aaaaa

#76000
1aaaaa
1aaaab

#76500
0aaaaa

#77000
1aaaaa
b1101011100000010 aaaad

#77500
0aaaaa

#78000
1aaaaa
0aaaab
b1101000110001111 aaaad

#78500
0aaaaa

#79000
1aaaaa
1aaaab

#79500
0aaaaa

#80000
1aaaaa
b1101101101101101 aaaad

#80500
0aaaaa

#81000
1aaaaa
0aaaab
b1110111011011110 aaaad

#81500
0aaaaa

#82000
1aaaaa
1aaaab

#82500
0aaaaa

#83000
1aaaaa
b110000100 aaaad

#83500
0aaaaa

#84000
1aaaaa
0aaaab
b100101110010 aaaad

#84500
0aaaaa

#85000
1aaaaa
1aaaab

#85500
0aaaaa

#86000
1aaaaa
b111111101 aaaad

#86500
0aaaaa

#87000
1aaaaa
0aaaab
b1110111000000100 aaaad

#87500
0aaaaa

#88000
1aaaaa
1aaaab

#88500
0aaaaa

#89000
1aaaaa
b1101011010001100 aaaad

#89500
0aaaaa

#90000
1aaaaa
0aaaab
b1100011001011101 aaaad

#90500
0aaaaa

#91000
1aaaaa
1aaaab

#91500
0aaaaa

#92000
1aaaaa
b1100010011000100 aaaad

#92500
0aaaaa

#93000
1aaaaa
0aaaab
b1101001000001001 aaaad

#93500
0aaaaa

#94000
1aaaaa
1aaaab

#94500
0aaaaa

#95000
1aaaaa
b1110011101001001 aaaad

#95500
0aaaaa

#96000
1aaaaa
0aaaab
b1111100111010011 aaaad

#96500
0aaaaa

#97000
1aaaaa
1aaaab

#97500
0aaaaa

#98000
1aaaaa
b1011001 aaaad

#98500
0aaaaa

#99000
1aaaaa
0aaaab
b1111011101111101 aaaad

#99500
0aaaaa

#100000
1aaaaa
1aaaab

#100500
0aaaaa

#101000
1aaaaa
b1110001101101011 aaaad

#101500
0aaaaa

#102000
1aaaaa
0aaaab
b1100110111011001 aaaad

#102500
0aaaaa

#103000
1aaaaa
1aaaab

#103500
0aaaaa

#104000
1aaaaa
b1100000101001101 aaaad

#104500
0aaaaa

#105000
1aaaaa
0aaaab
b1100001111111011 aaaad

#105500
0aaaaa

#106000
1aaaaa
1aaaab

#106500
0aaaaa

#107000
1aaaaa
b1101010011000101 aaaad

#107500
0aaaaa

#108000
1aaaaa
0aaaab
b1110101111000011 aaaad

#108500
0aaaaa

#109000
1aaaaa
1aaaab

#109500
0aaaaa

#110000
1aaaaa
b1111111000011011 aaaad

#110500
0aaaaa

#111000
1aaaaa
0aaaab
b1101001001 aaaad

#111500
0aaaaa

#112000
1aaaaa
1aaaab

#112500
0aaaaa

#113000
1aaaaa
b1111100101000101 aaaad

#113500
0aaaaa

#114000
1aaaaa
0aaaab
b1110010101111000 aaaad

#114500
0aaaaa

#115000
1aaaaa
1aaaab

#115500
0aaaaa

#116000
1aaaaa
b1101001000100010 aaaad

#116500
0aaaaa

#117000
1aaaaa
0aaaab
b1100100101011000 aaaad

#117500
0aaaaa

#118000
1aaaaa
1aaaab

#118500
0aaaaa

#119000
1aaaaa
b1101000000011101 aaaad

#119500
0aaaaa

#120000
1aaaaa
0aaaab
b1110001111110001 aaaad

#120500
0aaaaa

#121000
1aaaaa
1aaaab

#121500
0aaaaa

#122000
1aaaaa
b1111110000001000 aaaad

#122500
0aaaaa

#123000
1aaaaa
0aaaab
b110110001110 aaaad

#123500
0aaaaa

#124000
1aaaaa
1aaaab

#124500
0aaaaa

#125000
1aaaaa
b1000011101110 aaaad

#125500
0aaaaa

#126000
1aaaaa
0aaaab
b10101111101 aaaad

#126500
0aaaaa

#127000
1aaaaa
1aaaab

#127500
0aaaaa

#128000
1aaaaa
b1111000111001101 aaaad

#128500
0aaaaa

#129000
1aaaaa
0aaaab
b1110000001111011 aaaad

#129500
0aaaaa

#130000
1aaaaa
1aaaab

#130500
0aaaaa

#131000
1aaaaa
b1101101100000010 aaaad

#131500
0aaaaa

#132000
1aaaaa
0aaaab
b1110010100100001 aaaad

#132500
0aaaaa

#133000
1aaaaa
1aaaab

#133500
0aaaaa

#134000
1aaaaa
b1111101100000001 aaaad

#134500
0aaaaa

#135000
1aaaaa
0aaaab
b1001100010110 aaaad

#135500
0aaaaa

#136000
1aaaaa
1aaaab

#136500
0aaaaa

#137000
1aaaaa
b10001011000100 aaaad

#137500
0aaaaa

#138000
1aaaaa
0aaaab
b10001110000001 aaaad

#138500
0aaaaa

#139000
1aaaaa
1aaaab

#139500
0aaaaa

#140000
1aaaaa
b1011000000111 aaaad

#140500
0aaaaa

#141000
1aaaaa
0aaaab
b111110100 aaaad

#141500
0aaaaa

#142000
1aaaaa
1aaaab

#142500
0aaaaa

#143000
1aaaaa
b1111001000011000 aaaad

#143500
0aaaaa

#144000
1aaaaa
0aaaab
b1110111100101111 aaaad

#144500
0aaaaa

#145000
1aaaaa
1aaaab

#145500
0aaaaa

#146000
1aaaaa
b1111101110011111 aaaad

#146500
0aaaaa

#147000
1aaaaa
0aaaab
b1001001010000 aaaad

#147500
0aaaaa

#148000
1aaaaa
1aaaab

#148500
0aaaaa

#149000
1aaaaa
b10100100100011 aaaad

#149500
0aaaaa

#150000
1aaaaa
0aaaab
b11010111011001 aaaad

#150500
0aaaaa

#151000
1aaaaa
1aaaab

#151500
0aaaaa

#152000
1aaaaa
b11001100010101 aaaad

#152500
0aaaaa

#153000
1aaaaa
0aaaab
b10001011110010 aaaad

#153500
0aaaaa

#154000
1aaaaa
1aaaab

#154500
0aaaaa

#155000
1aaaaa
b110111111101 aaaad

#155500
0aaaaa

#156000
1aaaaa
0aaaab
b1111111100001100 aaaad

#156500
0aaaaa

#157000
1aaaaa
1aaaab

#157500
0aaaaa

#158000
1aaaaa
b1111110111110101 aaaad

#158500
0aaaaa

#159000
1aaaaa
0aaaab
b101111000010 aaaad

#159500
0aaaaa

#160000
1aaaaa
1aaaab

#160500
0aaaaa

#161000
1aaaaa
b10001000101110 aaaad

#161500
0aaaaa

#162000
1aaaaa
0aaaab
b11011010101101 aaaad

#162500
0aaaaa

#163000
1aaaaa
1aaaab

#163500
0aaaaa

#164000
1aaaaa
b11111110010010 aaaad

#164500
0aaaaa

#165000
1aaaaa
0aaaab
b11100010111111 aaaad

#165500
0aaaaa

#166000
1aaaaa
1aaaab

#166500
0aaaaa

#167000
1aaaaa
b10010110101001 aaaad

#167500
0aaaaa

#168000
1aaaaa
0aaaab
b111110101000 aaaad

#168500
0aaaaa

#169000
1aaaaa
1aaaab

#169500
0aaaaa

#170000
1aaaaa
b101101010 aaaad

#170500
0aaaaa

#171000
1aaaaa
0aaaab
b111000100 aaaad

#171500
0aaaaa

#172000
1aaaaa
1aaaab

#172500
0aaaaa

#173000
1aaaaa
b1000001011110 aaaad

#173500
0aaaaa

#174000
1aaaaa
0aaaab
b10010111011011 aaaad

#174500
0aaaaa

#175000
1aaaaa
1aaaab

#175500
0aaaaa

#176000
1aaaaa
b11011101110111 aaaad

#176500
0aaaaa

#177000
1aaaaa
0aaaab
b11110000111000 aaaad

#177500
0aaaaa

#178000
1aaaaa
1aaaab

#178500
0aaaaa

#179000
1aaaaa
b11000101010111 aaaad

#179500
0aaaaa

#180000
1aaaaa
0aaaab
b1101110010011 aaaad

#180500
0aaaaa

#181000
1aaaaa
1aaaab

#181500
0aaaaa

#182000
1aaaaa
b10011100111 aaaad

#182500
0aaaaa

#183000
1aaaaa
0aaaab
b1111011110101110 aaaad

#183500
0aaaaa

#184000
1aaaaa
1aaaab

#184500
0aaaaa

#185000
1aaaaa
b1111100110011011 aaaad

#185500
0aaaaa

#186000
1aaaaa
0aaaab
b100011110011 aaaad

#186500
0aaaaa

#187000
1aaaaa
1aaaab

#187500
0aaaaa

#188000
1aaaaa
b1110101101011 aaaad

#188500
0aaaaa

#189000
1aaaaa
0aaaab
b10110000101010 aaaad

#189500
0aaaaa

#190000
1aaaaa
1aaaab

#190500
0aaaaa

#191000
1aaaaa
b10110100010100 aaaad

#191500
0aaaaa

#192000
1aaaaa
0aaaab
b1111011000000 aaaad

#192500
0aaaaa

#193000
1aaaaa
1aaaab

#193500
0aaaaa

#194000
1aaaaa
b11100100100 aaaad

#194500
0aaaaa

#195000
1aaaaa
0aaaab
b1111000010110101 aaaad

#195500
0aaaaa

#196000
1aaaaa
1aaaab

#196500
0aaaaa

#197000
1aaaaa
b1110010101001100 aaaad

#197500
0aaaaa

#198000
1aaaaa
0aaaab
b1110100101100011 aaaad

#198500
0aaaaa

#199000
1aaaaa
1aaaab

#199500
0aaaaa

#200000
1aaaaa
b1111100111100110 aaaad

#200500
0aaaaa

#201000
1aaaaa
0aaaab
b110110110101 aaaad

#201500
0aaaaa

#202000
1aaaaa
1aaaab

#202500
0aaaaa

#203000
1aaaaa
b1101000010101 aaaad

#203500
0aaaaa

#204000
1aaaaa
0aaaab
b1011111101001 aaaad

#204500
0aaaaa

#205000
1aaaaa
1aaaab

#205500
0aaaaa

#206000
1aaaaa
b11100101010 aaaad

#206500
0aaaaa

#207000
1aaaaa
0aaaab
b1110111011101100 aaaad

#207500
0aaaaa

#208000
1aaaaa
1aaaab

#208500
0aaaaa

#209000
1aaaaa
b1101100111101101 aaaad

#209500
0aaaaa

#210000
1aaaaa
0aaaab
b1101000101011101 aaaad

#210500
0aaaaa

#211000
1aaaaa
1aaaab

#211500
0aaaaa

#212000
1aaaaa
b1101100001101001 aaaad

#212500
0aaaaa

#213000
1aaaaa
0aaaab
b1110101010101111 aaaad

#213500
0aaaaa

#214000
1aaaaa
1aaaab

#214500
0aaaaa

#215000
1aaaaa
b1111111001100001 aaaad

#215500
0aaaaa

#216000
1aaaaa
0aaaab
b100100001100 aaaad

#216500
0aaaaa

#217000
1aaaaa
1aaaab

#217500
0aaaaa

#218000
1aaaaa
b10010101110 aaaad

#218500
0aaaaa

#219000
1aaaaa
0aaaab
b1111001010100100 aaaad

#219500
0aaaaa

#220000
1aaaaa
1aaaab

#220500
0aaaaa

#221000
1aaaaa
b1101101011111100 aaaad

#221500
0aaaaa

#222000
1aaaaa
0aaaab
b1100100010010100 aaaad

#222500
0aaaaa

#223000
1aaaaa
1aaaab

#223500
0aaaaa

#224000
1aaaaa
b1100001111001010 aaaad

#224500
0aaaaa

#225000
1aaaaa
0aaaab
b1100111001110000 aaaad

#225500
0aaaaa

#226000
1aaaaa
1aaaab

#226500
0aaaaa

#227000
1aaaaa
b1110001011100101 aaaad

#227500
0aaaaa

#228000
1aaaaa
0aaaab
b1111011011010111 aaaad

#228500
0aaaaa

#229000
1aaaaa
1aaaab

#229500
0aaaaa

#230000
1aaaaa
b1000110 aaaad

#230500
0aaaaa

#231000
1aaaaa
0aaaab
b1111101001100101 aaaad

#231500
0aaaaa

#232000
1aaaaa
1aaaab

#232500
0aaaaa

#233000
1aaaaa
b1110011111101001 aaaad

#233500
0aaaaa

#234000
1aaaaa
0aaaab
b1101000110111110 aaaad

#234500
0aaaaa

#235000
1aaaaa
1aaaab

#235500
0aaaaa

#236000
1aaaaa
b1100001010110001 aaaad

#236500
0aaaaa

#237000
1aaaaa
0aaaab
b1100001000101011 aaaad

#237500
0aaaaa

#238000
1aaaaa
1aaaab

#238500
0aaaaa

#239000
1aaaaa
b1101000010010111 aaaad

#239500
0aaaaa

#240000
1aaaaa
0aaaab
b1110011100110000 aaaad

#240500
0aaaaa

#241000
1aaaaa
1aaaab

#241500
0aaaaa

#242000
1aaaaa
b1111101101001011 aaaad

#242500
0aaaaa

#243000
1aaaaa
0aaaab
b1110000011 aaaad

#243500
0aaaaa

#244000
1aaaaa
1aaaab

#244500
0aaaaa

#245000
1aaaaa
b1111110001010100 aaaad

#245500
0aaaaa

#246000
1aaaaa
0aaaab
b1110100111000001 aaaad

#246500
0aaaaa

#247000
1aaaaa
1aaaab

#247500
0aaaaa

#248000
1aaaaa
b1101010101101111 aaaad

#248500
0aaaaa

#249000
1aaaaa
0aaaab
b1100100111101010 aaaad

#249500
0aaaaa

#250000
1aaaaa
1aaaab

#250500
0aaaaa

#251000
1aaaaa
b1100110110000110 aaaad

#251500
0aaaaa

#252000
1aaaaa
0aaaab
b1101111101001011 aaaad

#252500
0aaaaa

#253000
1aaaaa
1aaaab

#253500
0aaaaa

#254000
1aaaaa
b1111011101101000 aaaad

#254500
0aaaaa

#255000
1aaaaa
0aaaab
b101100000110 aaaad

#255500
0aaaaa

#256000
1aaaaa
1aaaab

#256500
0aaaaa

#257000
1aaaaa
b1000110001001 aaaad

#257500
0aaaaa

#258000
1aaaaa
0aaaab
b100010111100 aaaad

#258500
0aaaaa

#259000
1aaaaa
1aaaab

#259500
0aaaaa

#260000
1aaaaa
b1111010111101000 aaaad

#260500
0aaaaa

#261000
1aaaaa
0aaaab
b1110001100111101 aaaad

#261500
0aaaaa

#262000
1aaaaa
1aaaab

#262500
0aaaaa

#263000
1aaaaa
b1101101011011110 aaaad

#263500
0aaaaa

#264000
1aaaaa
0aaaab
b1110000111110000 aaaad

#264500
0aaaaa

#265000
1aaaaa
1aaaab

#265500
0aaaaa

#266000
1aaaaa
b1111011000011000 aaaad

#266500
0aaaaa

#267000
1aaaaa
0aaaab
b111010100001 aaaad

#267500
0aaaaa

#268000
1aaaaa
1aaaab

#268500
0aaaaa

#269000
1aaaaa
b10000010110110 aaaad

#269500
0aaaaa

#270000
1aaaaa
0aaaab
b10010010100010 aaaad

#270500
0aaaaa

#271000
1aaaaa
1aaaab

#271500
0aaaaa

#272000
1aaaaa
b1100110010010 aaaad

#272500
0aaaaa

#273000
1aaaaa
0aaaab
b10111111011 aaaad

#273500
0aaaaa

#274000
1aaaaa
1aaaab

#274500
0aaaaa

#275000
1aaaaa
b1111010001110000 aaaad

#275500
0aaaaa

#276000
1aaaaa
0aaaab
b1110111010000000 aaaad

#276500
0aaaaa

#277000
1aaaaa
1aaaab

#277500
0aaaaa

#278000
1aaaaa
b1111100000001110 aaaad

#278500
0aaaaa

#279000
1aaaaa
0aaaab
b110101100111 aaaad

#279500
0aaaaa

#280000
1aaaaa
1aaaab

#280500
0aaaaa

#281000
1aaaaa
b10010100011000 aaaad

#281500
0aaaaa

#282000
1aaaaa
0aaaab
b11010001111001 aaaad

#282500
0aaaaa

#283000
1aaaaa
1aaaab

#283500
0aaaaa

#284000
1aaaaa
b11010011100010 aaaad

#284500
0aaaaa

#285000
1aaaaa
0aaaab
b10011011100110 aaaad

#285500
0aaaaa

#286000
1aaaaa
1aaaab

#286500
0aaaaa

#287000
1aaaaa
b1001000001001 aaaad

#287500
0aaaaa

#288000
1aaaaa
0aaaab
b100011000 aaaad

#288500
0aaaaa

#289000
1aaaaa
1aaaab

#289500
0aaaaa

#290000
1aaaaa
b1111110011100111 aaaad

#290500
0aaaaa

#291000
1aaaaa
0aaaab
b100000000101 aaaad

#291500
0aaaaa

#292000
1aaaaa
1aaaab

#292500
0aaaaa

#293000
1aaaaa
b1110101111110 aaaad

#293500
0aaaaa

#294000
1aaaaa
0aaaab
b11001101000001 aaaad

#294500
0aaaaa

#295000
1aaaaa
1aaaab

#295500
0aaaaa

#296000
1aaaaa
b11111100000110 aaaad

#296500
0aaaaa

#297000
1aaaaa
0aaaab
b11101101001111 aaaad

#297500
0aaaaa

#298000
1aaaaa
1aaaab

#298500
0aaaaa

#299000
1aaaaa
b10101000010000 aaaad

#299500
0aaaaa

#300000
1aaaaa
0aaaab
b1001111000001 aaaad

#300500
0aaaaa

#301000
1aaaaa
1aaaab

#301500
0aaaaa

#302000
1aaaaa
b1100111001 aaaad

#302500
0aaaaa

#303000
1aaaaa
0aaaab
b1101111 aaaad

#303500
0aaaaa

#304000
1aaaaa
1aaaab

#304500
0aaaaa

#305000
1aaaaa
b110010010100 aaaad

#305500
0aaaaa

#306000
1aaaaa
0aaaab
b10000110000100 aaaad

#306500
0aaaaa

#307000
1aaaaa
1aaaab

#307500
0aaaaa

#308000
1aaaaa
b11010011000000 aaaad

#308500
0aaaaa

#309000
1aaaaa
0aaaab
b11110010001011 aaaad

#309500
0aaaaa

#310000
1aaaaa
1aaaab

#310500
0aaaaa

#311000
1aaaaa
b11010010100011 aaaad

#311500
0aaaaa

#312000
1aaaaa
0aaaab
b10000001011100 aaaad

#312500
0aaaaa

#313000
1aaaaa
1aaaab

#313500
0aaaaa

#314000
1aaaaa
b100011111001 aaaad

#314500
0aaaaa

#315000
1aaaaa
0aaaab
b1111100100110010 aaaad

#315500
0aaaaa

#316000
1aaaaa
1aaaab

#316500
0aaaaa

#317000
1aaaaa
b1111011111111011 aaaad

#317500
0aaaaa

#318000
1aaaaa
0aaaab
b10100100011 aaaad

#318500
0aaaaa

#319000
1aaaaa
1aaaab

#319500
0aaaaa

#320000
1aaaaa
b1100101110001 aaaad

#320500
0aaaaa

#321000
1aaaaa
0aaaab
b10101000100100 aaaad

#321500
0aaaaa

#322000
1aaaaa
1aaaab

#322500
0aaaaa

#323000
1aaaaa
b10111000101111 aaaad

#323500
0aaaaa

#324000
1aaaaa
0aaaab
b10001010100100 aaaad

#324500
0aaaaa

#325000
1aaaaa
1aaaab

#325500
0aaaaa

#326000
1aaaaa
b110000100010 aaaad

#326500
0aaaaa

#327000
1aaaaa
0aaaab
b1111010010010100 aaaad

#327500
0aaaaa

#328000
1aaaaa
1aaaab

#328500
0aaaaa

#329000
1aaaaa
b1110011001100000 aaaad

#329500
0aaaaa

#330000
1aaaaa
0aaaab
b1110011101011110 aaaad

#330500
0aaaaa

#331000
1aaaaa
1aaaab

#331500
0aaaaa

#332000
1aaaaa
b1111010111111100 aaaad

#332500
0aaaaa

#333000
1aaaaa
0aaaab
b101000000100 aaaad

#333500
0aaaaa

#334000
1aaaaa
1aaaab

#334500
0aaaaa

#335000
1aaaaa
b1100010100010 aaaad

#335500
0aaaaa

#336000
1aaaaa
0aaaab
b1100110100000 aaaad

#336500
0aaaaa

#337000
1aaaaa
1aaaab

#337500
0aaaaa

#338000
1aaaaa
b101101101100 aaaad

#338500
0aaaaa

#339000
1aaaaa
0aaaab
b1111001111011110 aaaad

#339500
0aaaaa

#340000
1aaaaa
1aaaab

#340500
0aaaaa

#341000
1aaaaa
b1101110101011100 aaaad

#341500
0aaaaa

#342000
1aaaaa
0aaaab
b1101000111010001 aaaad

#342500
0aaaaa

#343000
1aaaaa
1aaaab

#343500
0aaaaa

#344000
1aaaaa
b1101010111011100 aaaad

#344500
0aaaaa

#345000
1aaaaa
0aaaab
b1110011010001111 aaaad

#345500
0aaaaa

#346000
1aaaaa
1aaaab

#346500
0aaaaa

#347000
1aaaaa
b1111101011011101 aaaad

#347500
0aaaaa

#348000
1aaaaa
0aaaab
b100000000101 aaaad

#348500
0aaaaa

#349000
1aaaaa
1aaaab

#349500
0aaaaa

#350000
1aaaaa
b11011001110 aaaad

#350500
0aaaaa

#351000
1aaaaa
0aaaab
b1111011100000111 aaaad

#351500
0aaaaa

#352000
1aaaaa
1aaaab

#352500
0aaaaa

#353000
1aaaaa
b1101111110100100 aaaad

#353500
0aaaaa

#354000
1aaaaa
0aaaab
b1100101101011101 aaaad

#354500
0aaaaa

#355000
1aaaaa
1aaaab

#355500
0aaaaa

#356000
1aaaaa
b1100001101110101 aaaad

#356500
0aaaaa

#357000
1aaaaa
0aaaab
b1100101101000000 aaaad

#357500
0aaaaa

#358000
1aaaaa
1aaaab

#358500
0aaaaa

#359000
1aaaaa
b1101111001111100 aaaad

#359500
0aaaaa

#360000
1aaaaa
0aaaab
b1111001101101100 aaaad

#360500
0aaaaa

#361000
1aaaaa
1aaaab

#361500
0aaaaa

#362000
1aaaaa
b1111111110010001 aaaad

#362500
0aaaaa

#363000
1aaaaa
0aaaab
b1111110011000111 aaaad

#363500
0aaaaa

#364000
1aaaaa
1aaaab

#364500
0aaaaa

#365000
1aaaaa
b1110110000111111 aaaad

#365500
0aaaaa

#366000
1aaaaa
0aaaab
b1101010111110000 aaaad

#366500
0aaaaa

#367000
1aaaaa
1aaaab

#367500
0aaaaa

#368000
1aaaaa
b1100010010110001 aaaad

#368500
0aaaaa

#369000
1aaaaa
0aaaab
b1100000011111010 aaaad

#369500
0aaaaa

#370000
1aaaaa
1aaaab

#370500
0aaaaa

#371000
1aaaaa
b1100110010111111 aaaad

#371500
0aaaaa

#372000
1aaaaa
0aaaab
b1110001010000010 aaaad

#372500
0aaaaa

#373000
1aaaaa
1aaaab

#373500
0aaaaa

#374000
1aaaaa
b1111011111111011 aaaad

#374500
0aaaaa

#375000
1aaaaa
0aaaab
b1100011001 aaaad

#375500
0aaaaa

#376000
1aaaaa
1aaaab

#376500
0aaaaa

#377000
1aaaaa
b1111111011101000 aaaad

#377500
0aaaaa

#378000
1aaaaa
0aaaab
b1110110111110111 aaaad

#378500
0aaaaa

#379000
1aaaaa
1aaaab

#379500
0aaaaa

#380000
1aaaaa
b1101100100011010 aaaad

#380500
0aaaaa

#381000
1aaaaa
0aaaab
b1100101100011110 aaaad

#381500
0aaaaa

#382000
1aaaaa
1aaaab

#382500
0aaaaa

#383000
1aaaaa
b1100101110000111 aaaad

#383500
0aaaaa

#384000
1aaaaa
0aaaab
b1101101011101000 aaaad

#384500
0aaaaa

#385000
1aaaaa
1aaaab

#385500
0aaaaa

#386000
1aaaaa
b1111001010011001 aaaad

#386500
0aaaaa

#387000
1aaaaa
0aaaab
b11111110010 aaaad

#387500
0aaaaa

#388000
1aaaaa
1aaaab

#388500
0aaaaa

#389000
1aaaaa
b1000110000000 aaaad

#389500
0aaaaa

#390000
1aaaaa
0aaaab
b101110010000 aaaad

#390500
0aaaaa

#391000
1aaaaa
1aaaab

#391500
0aaaaa

#392000
1aaaaa
b1111101000000101 aaaad

#392500
0aaaaa

#393000
1aaaaa
0aaaab
b1110011001101110 aaaad

#393500
0aaaaa

#394000
1aaaaa
1aaaab

#394500
0aaaaa

#395000
1aaaaa
b1101101101011110 aaaad

#395500
0aaaaa

#396000
1aaaaa
0aaaab
b1101111101001010 aaaad

#396500
0aaaaa

#397000
1aaaaa
1aaaab

#397500
0aaaaa

#398000
1aaaaa
b1111000101011111 aaaad

#398500
0aaaaa

#399000
1aaaaa
0aaaab
b100111101000 aaaad

#399500
0aaaaa

#400000
1aaaaa
1aaaab

#400500
0aaaaa

#401000
1aaaaa
b1111000010000 aaaad

#401500
0aaaaa

#402000
1aaaaa
0aaaab
b10010100100010 aaaad

#402500
0aaaaa

#403000
1aaaaa
1aaaab

#403500
0aaaaa

#404000
1aaaaa
b1110011000011 aaaad

#404500
0aaaaa

#405000
1aaaaa
0aaaab
b101000011000 aaaad

#405500
0aaaaa

#406000
1aaaaa
1aaaab

#406500
0aaaaa

#407000
1aaaaa
b1111011101000100 aaaad

#407500
0aaaaa

#408000
1aaaaa
0aaaab
b1110111001110111 aaaad

#408500
0aaaaa

#409000
1aaaaa
1aaaab

#409500
0aaaaa

#410000
1aaaaa
b1111010011111010 aaaad

#410500
0aaaaa

#411000
1aaaaa
0aaaab
b100010011000 aaaad

#411500
0aaaaa

#412000
1aaaaa
1aaaab

#412500
0aaaaa

#413000
1aaaaa
b10000010110101 aaaad

#413500
0aaaaa

#414000
1aaaaa
0aaaab
b11001001111010 aaaad

#414500
0aaaaa

#415000
1aaaaa
1aaaab

#415500
0aaaaa

#416000
1aaaaa
b11011000010110 aaaad

#416500
0aaaaa

#417000
1aaaaa
0aaaab
b10101010010001 aaaad

#417500
0aaaaa

#418000
1aaaaa
1aaaab

#418500
0aaaaa

#419000
1aaaaa
b1011000111111 aaaad

#419500
0aaaaa

#420000
1aaaaa
0aaaab
b1110101100 aaaad

#420500
0aaaaa

#421000
1aaaaa
1aaaab

#421500
0aaaaa

#422000
1aaaaa
b1111110001111101 aaaad

#422500
0aaaaa

#423000
1aaaaa
0aaaab
b10010110101 aaaad

#423500
0aaaaa

#424000
1aaaaa
1aaaab

#424500
0aaaaa

#425000
1aaaaa
b1100011010000 aaaad

#425500
0aaaaa

#426000
1aaaaa
0aaaab
b10111101101001 aaaad

#426500
0aaaaa

#427000
1aaaaa
1aaaab

#427500
0aaaaa

#428000
1aaaaa
b11110111010101 aaaad

#428500
0aaaaa

#429000
1aaaaa
0aaaab
b11110101001111 aaaad

#429500
0aaaaa

